[
{
  "directory": "/home/jan/vsb/BionanoParser/build",
  "command": "/usr/bin/g++    -I/home/jan/vsb/BionanoParser/src -I/home/jan/vsb/BionanoParser/build  -O0 -fno-elide-constructors -ansi -Wextra -Wall -Winit-self -Wold-style-cast -Woverloaded-virtual -Wuninitialized -Wmissing-declarations -Winit-self -std=c++98 -g   -std=gnu++11 -o CMakeFiles/bionano_parser.dir/src/BionanoParser.cpp.o -c /home/jan/vsb/BionanoParser/src/BionanoParser.cpp",
  "file": "/home/jan/vsb/BionanoParser/src/BionanoParser.cpp"
},
{
  "directory": "/home/jan/vsb/BionanoParser/build",
  "command": "/usr/bin/g++    -I/home/jan/vsb/BionanoParser/src -I/home/jan/vsb/BionanoParser/build  -O0 -fno-elide-constructors -ansi -Wextra -Wall -Winit-self -Wold-style-cast -Woverloaded-virtual -Wuninitialized -Wmissing-declarations -Winit-self -std=c++98 -g   -std=gnu++11 -o CMakeFiles/bionano_parser.dir/src/cTokenizer.cpp.o -c /home/jan/vsb/BionanoParser/src/cTokenizer.cpp",
  "file": "/home/jan/vsb/BionanoParser/src/cTokenizer.cpp"
}
]